[
  {
    "description": "",
    "id": "abstract",
    "image": "abstract.webp",
    "name": "Abstrakt",
    "questions": [
      "Aktion",
      "Agnostizismus",
      "Aussehen",
      "Absaugen",
      "Atheismus",
      "Attribut",
      "Eigenständigkeit",
      "Schönheit",
      "Buddhismus",
      "Burn-out",
      "Kindlichkeit",
      "Christentum",
      "Klugheit",
      "Klischee",
      "Komfort",
      "Gemeinsamkeit",
      "Verbindung",
      "Schicksal",
      "Unterschied",
      "Schwierigkeit",
      "Aufwand",
      "Element",
      "Verschlüsselung",
      "Gleichstellung",
      "Schätzung",
      "Beispiel",
      "Ausdruck",
      "Ausfall",
      "Fairness",
      "Glaube",
      "Schicksal",
      "Meinungsfreiheit",
      "Freizeit",
      "Willensfreiheit",
      "Freiheit",
      "Geographie",
      "raten",
      "Harmonie",
      "hassen",
      "Gesundheit",
      "Hoffnung",
      "Menschenrecht",
      "Menschlichkeit",
      "Demut",
      "Humor",
      "Idee",
      "Auswirkungen",
      "Bedeutung",
      "unendlich",
      "Beleidigung",
      "Integrität",
      "Islam",
      "Sprache",
      "Standort",
      "Liebe",
      "Mathematik",
      "Metapher",
      "Missverständnis",
      "Moment",
      "Stimmung",
      "brauchen",
      "Objektivität",
      "Wortart",
      "Leidenschaft",
      "Frieden",
      "Seelenfrieden",
      "Philosophie",
      "Popularität",
      "Pressefreiheit",
      "Datenschutz",
      "Problem",
      "Psychologie",
      "Zitat",
      "Reaktion",
      "Realität",
      "Referenz",
      "Entspannung",
      "Respekt",
      "Antwort",
      "Schutz",
      "Zufriedenheit",
      "Sicherheit",
      "Sinn für Humor",
      "Form",
      "Bedeutung",
      "Gleichnis",
      "Durchtriebenheit",
      "Trost",
      "Seele",
      "Stress",
      "Kampf",
      "Erfolg",
      "Trend",
      "Wahrheit",
      "Verständnis",
      "Urlaub",
      "Opferrolle",
      "Volatilität",
      "Wohlbefinden",
      "Weisheit"
    ]
  },
  {
    "description": "",
    "id": "animals",
    "image": "animals.webp",
    "name": "Tiere",
    "questions": [
      "Erdferkel",
      "Krokodil",
      "Ameise",
      "Antilope",
      "Pavian",
      "Fledermaus",
      "Bär",
      "Biene",
      "Käfer",
      "Vogel",
      "schwarzer Panther",
      "Schwarze Witwe",
      "Bock",
      "Wanze",
      "Bulle",
      "Hase",
      "Schmetterling",
      "Kamel",
      "Katze",
      "Raupe",
      "Tausendfüßler",
      "Chamäleon",
      "Gepard",
      "Huhn",
      "Chihuahua",
      "Schimpanse",
      "Clownfisch",
      "Kakerlake",
      "Puma",
      "Kuh",
      "Kojote",
      "Krabbe",
      "Grille",
      "Krokodil",
      "Kuckuck",
      "Hirsch",
      "Dinosaurier",
      "Dodo",
      "Hund",
      "Delphin",
      "Esel",
      "Taube",
      "Libelle",
      "Ente",
      "Mistkäfer",
      "Adler",
      "Aal",
      "Elefant",
      "Frettchen",
      "Glühwürmchen",
      "Fisch",
      "Fuchs",
      "Frosch",
      "Fruchtfliege",
      "Gazelle",
      "Gecko",
      "Giraffe",
      "Ziege",
      "Goldfisch",
      "Gans",
      "Ziesel",
      "Grizzlybär",
      "Meerschweinchen",
      "Hamster",
      "Hase",
      "Nilpferd",
      "Nilpferd",
      "Hornisse",
      "Pferd",
      "Mensch",
      "Jaguar",
      "Känguru",
      "Marienkäfer",
      "Leopard",
      "Löwe",
      "Eidechse",
      "Lama",
      "Hummer",
      "Säugetier",
      "Maulwurf",
      "Affe",
      "Elch",
      "Stechmücke",
      "Motte",
      "Maus",
      "Einhorn",
      "Oltopus",
      "Orang-Utan",
      "Strauß",
      "Eule",
      "Austern",
      "Panther",
      "Papagei",
      "Pfau",
      "Pelikan",
      "Pinguin",
      "Schwein",
      "Taube",
      "Polarbiener",
      "Pony",
      "Puma",
      "Kaninchen",
      "Ratte",
      "Rabe",
      "Rentier",
      "Straßenläufer",
      "Nagetier",
      "Hahn",
      "Lachs",
      "Sardine",
      "Skorpion",
      "Seegurke",
      "Seepferdchen",
      "Seeschildkröte",
      "Möwe",
      "Siegel",
      "Hai",
      "Schaf",
      "Schlange",
      "Schneeleopard",
      "Spinne",
      "Tintenfisch",
      "Eichhörnchen",
      "Seestern",
      "Schwertfisch",
      "T. rex",
      "Vogelspinne",
      "Tiger",
      "Kröte",
      "Schildkröte",
      "Tukan",
      "Forelle",
      "Schildkröte",
      "Wespe",
      "Wiesel",
      "Wal",
      "Wolf",
      "Buntspecht",
      "Wurm",
      "Yak",
      "Zebra"
    ]
  },
  {
    "description": "",
    "id": "food-and-drink",
    "image": "food-and-drink.webp",
    "name": "Essen und Trinken",
    "questions": [
      "Mandel",
      "Vorspeise",
      "Apfel",
      "Apfelsaft",
      "Aprikose",
      "Avocado",
      "Speck",
      "Brötchen",
      "Banane",
      "Barbecue",
      "Teig",
      "Bohne",
      "Rindfleisch",
      "Paprika",
      "Brombeere",
      "Blaubeere",
      "Paranuss",
      "Brot",
      "Frühstück",
      "Brie",
      "Brokkoli",
      "Brühe",
      "Napfkuchen",
      "Hamburger",
      "Burrito",
      "Butter",
      "Kuchen",
      "Häppchen",
      "Kandiszucker",
      "Karotte",
      "Cashew",
      "Blumenkohl",
      "Sellerie",
      "Käse",
      "Cheeseburger",
      "Kirsche",
      "Kaugummi",
      "Hähnchen",
      "Kichererbse",
      "Peperoni",
      "Schokolade",
      "Schokoladensplitter",
      "Kokosnuss",
      "Kokosnussmilch",
      "Kaffee",
      "Keks",
      "Mais",
      "Hüttenkäse",
      "Preiselbeere",
      "Creme",
      "Hörnchen",
      "Gurke",
      "Muffin",
      "Curry",
      "Molkerei",
      "Nachspeise",
      "Abendessen",
      "Donut",
      "Teig",
      "Dressing",
      "Getränk",
      "Ei",
      "Eierlikör",
      "Aubergine",
      "Holunder",
      "Energy-Drink",
      "Falafel",
      "Fisch",
      "Fischfilet",
      "Fischstäbchen",
      "Mehl",
      "Pommes frites",
      "Frozen Joghurt",
      "Obst",
      "Kichererbsenbohnen",
      "Knoblauch",
      "Lebkuchen",
      "Glasur",
      "Gouda",
      "Getreide",
      "Trauben",
      "Grapefruit",
      "Brechbohne",
      "Schinken",
      "Hamburger",
      "Haselnuss",
      "Kräuter",
      "Honig",
      "Speiseeis",
      "Saft",
      "Grünkohl",
      "Kebab",
      "Ketchup",
      "Kidneybohne",
      "Kimchi",
      "Kiwi",
      "Zitrone",
      "Limonade",
      "Linsen",
      "Kopfsalat",
      "Limette",
      "Mittagessen",
      "Mango",
      "Ahornsirup",
      "Mahlzeit",
      "Fleisch",
      "Milch",
      "Milchshake",
      "Mineralwasser",
      "Minze",
      "Muffin",
      "Pilz",
      "Senf",
      "Nuss",
      "Hafer",
      "Haferflocken",
      "Öl",
      "Olive",
      "Zwiebel",
      "Zwiebelring",
      "Orange",
      "Orangensaft",
      "Auster",
      "Pfannkuchen",
      "Pasta",
      "Pfirsich",
      "Erdnuss",
      "Birne",
      "Pfeffer",
      "Peperoni",
      "Essiggurke",
      "Kuchen",
      "Pinienkern",
      "Ananas",
      "Pistazie",
      "Pizza",
      "Pflaume",
      "Granatapfel",
      "Popcorn",
      "Schweinefleisch",
      "Haferbrei",
      "Kartoffel",
      "Kartoffelchip",
      "Kartoffelecke",
      "Brezel",
      "Kürbis",
      "Quesadilla",
      "Rosine",
      "Himbeere",
      "Rote Linsen",
      "Reis",
      "Roulade",
      "Salat",
      "Salami",
      "Lachs",
      "Salz",
      "Sandwich",
      "Sardine",
      "Sauce",
      "Sauerkraut",
      "Wurst",
      "Seafood",
      "Seitan",
      "Brausepulver",
      "Beilage",
      "Smoothie",
      "Limo",
      "Sorbet",
      "Suppe",
      "Sojasoße",
      "Spaghetti",
      "Gewürz",
      "streuen",
      "Squash",
      "Fingerfood",
      "Steak",
      "Erdbeere",
      "Sub",
      "Sushi",
      "Sirup",
      "Taco",
      "Tee",
      "Toast",
      "Tofu",
      "Tomate",
      "Tortilla",
      "Thunfisch",
      "Gemüse",
      "Waffel",
      "Walnuss",
      "Wasser",
      "Wassermelone",
      "Molke",
      "Schlagsahne",
      "Joghurt",
      "Zuccini"
    ]
  },
  {
    "description": "",
    "id": "jobs",
    "image": "jobs.webp",
    "name": "Arbeitsplätze",
    "questions": [
      "Buchhalter",
      "Schauspieler",
      "Moderator",
      "Architekt",
      "Assistent",
      "Astronaut",
      "Autor",
      "Babysitter",
      "Bäcker",
      "Balletttänzer",
      "Frisör",
      "Baseball Spieler",
      "Basketball Spieler",
      "Busfahrer",
      "Butler",
      "Kassierer",
      "Geschäftsführer",
      "Chef",
      "Clown",
      "Komiker",
      "Komponist",
      "Berater",
      "Koch",
      "Betreuer",
      "Tänzer",
      "Zusteller",
      "Zahnarzt",
      "Designer",
      "Detektiv",
      "Programmierer",
      "Diätassistent",
      "Direktor",
      "Arzt",
      "Fahrer",
      "Elektriker",
      "Ingenieur",
      "Unternehmer",
      "Augenarzt",
      "Bauer",
      "Modedesigner",
      "Flugbegleiter",
      "Blumenhändler",
      "Feuerwehrmann",
      "Fußballspieler",
      "Müllmann",
      "Gärtner",
      "Allgemeinmediziner",
      "Golfer",
      "Grafikdesigner",
      "Wachmann",
      "Friseur",
      "Hausmeister",
      "Journalist",
      "Rechtsanwalt",
      "Bibliothekar",
      "Dienstmädchen",
      "Magier",
      "Postbote",
      "Maskenbildner",
      "Manager",
      "Mathematiker",
      "Mechaniker",
      "Minister",
      "Modell",
      "Musiker",
      "Kindermädchen",
      "Neurologe",
      "Krankenschwester",
      "Maler",
      "Performance-Künstler",
      "Apotheker",
      "Physiker",
      "Dramatiker",
      "Klempner",
      "Dichter",
      "Polizist",
      "Politiker",
      "Priester",
      "Gefängniswärter",
      "Professor",
      "Programmierer",
      "Psychologe",
      "Immobilienmakler",
      "Rezeptionist",
      "Mechaniker",
      "Forscher",
      "Verkäufer",
      "Wissenschaftler",
      "Drehbuchautor",
      "Fißballspieler",
      "Straßenkünstler",
      "Stuntman",
      "Chirurg",
      "Schneider",
      "Tätowierer",
      "Lehrer",
      "Reiseleiter",
      "Trainer",
      "Übersetzer",
      "Tierarzt",
      "Synchronsprecher",
      "Kellner"
    ]
  },
  {
    "description": "",
    "id": "idioms",
    "image": "idioms.webp",
    "name": "Redensarten",
    "questions": [
      "Das geht etwas zu weit",
      "Nichts besonderes",
      "add insult to injury",
      "all over the place",
      "be as it may",
      "beat around the bush",
      "bit the bullet",
      "bite off more than you can chew",
      "blessing in disguise",
      "blow off steam",
      "break a leg",
      "call it a day",
      "can of worms",
      "couldn't care less",
      "cut corners",
      "cut to the chase",
      "dial down",
      "draw a line",
      "drop a hint",
      "easier said than done",
      "eat like a horse",
      "fair and square",
      "fall into place",
      "fall through the tracks",
      "give something a go",
      "give something a whirl",
      "go cold turkey",
      "go over your head",
      "go overboard",
      "go the extra mile",
      "go the way of the dodo",
      "have bigger fish to fry",
      "hit the nail on the head",
      "hit the sack",
      "if worse comes to worst",
      "ignorance is bliss",
      "in the nick of time",
      "jack of all trades",
      "jump at the chance",
      "jump for joy",
      "kangaroo court",
      "keep an eye out",
      "keep someone company",
      "keep tabs on",
      "keep your cool",
      "kid around",
      "knock it off",
      "laughing stock",
      "lay off",
      "lay the groundwork",
      "leave someone in the dust",
      "light at the end of the tunnel",
      "like two peas in a pod",
      "love at first sight",
      "nip something in the bud",
      "no harm, no foul",
      "no pain, no gain",
      "no way",
      "not so fast",
      "off the top of my head",
      "off your rocker",
      "on thin ice",
      "once in a blue moon",
      "pick up the pieces",
      "piece of cake",
      "pitch-perfect",
      "pixel perfect",
      "play by ear",
      "play on words",
      "play someone like a fiddle",
      "point fingers",
      "poster child",
      "pot calling the kettle black",
      "pour cold water on",
      "pour your heart out",
      "pull yourself together",
      "put lipstick on a pig",
      "read between the lines",
      "rip off",
      "rue the day",
      "spill the beans",
      "stand a chance",
      "stand behind",
      "steal someone's thunder",
      "steal the show",
      "stretch the truth",
      "stroke of luck",
      "the best of both worlds",
      "the elephant in the room",
      "the last straw",
      "the whole nine yards",
      "to make a long story short",
      "top of the line",
      "turn a blind eye",
      "wet your pants",
      "when push comes to shove",
      "wild goose chase",
      "word of mouth",
      "worth one's salt",
      "you can say that again"
    ]
  },
  {
    "description": "",
    "id": "classic-characters",
    "image": "classic-characters.webp",
    "name": "Classic characters",
    "questions": [
      "Aladdin",
      "Alice",
      "Bambi",
      "Big Bad Wolf",
      "Captain Hook",
      "Christopher Robin",
      "Cinderella",
      "Cowardly Lion",
      "D'Artagnan",
      "Dorothy",
      "Dracula",
      "Ebenezer Scrooge",
      "Eeyore",
      "Frankenstein",
      "Gretel",
      "Gulliver",
      "Hansel",
      "Huckleberry Finn",
      "Humpty Dumpty",
      "Jack and Jill",
      "John Carter",
      "John Watson",
      "Little Bo-Peep",
      "Little Red Riding Hood",
      "Mowgli",
      "Munchkin",
      "Mycroft Holmes",
      "Peter Pan",
      "Peter Piper",
      "Piglet",
      "Pinocchio",
      "Prince Charming",
      "Rapunzel",
      "Red Queen",
      "Robinson Crusoe",
      "Rumpelstiltskin",
      "Scarecrow",
      "Sherlock Holmes",
      "Sindbad the Sailor",
      "Sleeping Beauty",
      "Snow White",
      "Tarzan",
      "The Cheshire Cat",
      "The Frog Prince",
      "The Ghost of Christmas Past",
      "The Gingerbread Man",
      "The Hunchback of Notre-Dame",
      "The Itsy Bitsy Spider",
      "The Little Mermaid",
      "The Mad Hatter",
      "The March Hare",
      "The Muffin Man",
      "The Queen of Hearts",
      "The Seven Dwarfs",
      "The Snow Queen",
      "The Three Blind Mice",
      "The Three Little Pigs",
      "The Three Musketeers",
      "The Ugly Duckling",
      "Thumbelina",
      "Tigger",
      "Tin Woodman",
      "Tinker Bell",
      "Tom Sawyer",
      "Tweedledum and Tweedledee",
      "Winnie-the-Pooh",
      "Wizard of Oz",
      "Zorro"
    ]
  },
  {
    "description": "",
    "id": "classic-literature",
    "image": "classic-literature.webp",
    "name": "Classic literature",
    "questions": [
      "A Christmas Carol",
      "A Princess of Mars",
      "A Tale of Two Cities",
      "Adventures of Huckleberry Finn",
      "Aesop's Fables",
      "Alice's Adventures in Wonderland",
      "Anna Karenina",
      "Around the World in Eighty Days",
      "Beowulf",
      "Cinderella",
      "Crime and Punishment",
      "David Copperfield",
      "Don Quixote",
      "Dracula",
      "Emma",
      "Frankenstein",
      "Great Expectations",
      "Gulliver's Travels",
      "Hamlet",
      "Hansel and Gretel",
      "Ivanhoe",
      "Jack and the Beanstalk",
      "Journey to the Center of the Earth",
      "Les Misérables",
      "Little Red Riding Hood",
      "Little Women",
      "Macbeth",
      "Moby Dick",
      "Oliver Twist",
      "Othello",
      "Peter Pan",
      "Pride and Prejudice",
      "Rapunzel",
      "Robinson Crusoe",
      "Romeo and Juliet",
      "Rumpelstiltskin",
      "Sense and Sensibility",
      "Sleeping Beauty",
      "Snow White",
      "The Adventures of Sherlock Holmes",
      "The Adventures of Tom Sawyer",
      "The Black Cat",
      "The Brothers Karamazov",
      "The Canterbury Tales",
      "The Cask of Amontillado",
      "The Count of Monte Cristo",
      "The Emperor's New Clothes",
      "The Fall of the House of Usher",
      "The Frog Prince",
      "The Great Gatsby",
      "The Hunchback of Notre-Dame",
      "The Idiot",
      "The Iliad",
      "The Invisible Man",
      "The Jungle Book",
      "The Little Mermaid",
      "The Lost World",
      "The Metamorphosis",
      "The Nightingale",
      "The Odyssey",
      "The Picture of Dorian Gray",
      "The Princess and the Pea",
      "The Raven",
      "The Scarlet Letter",
      "The Strange Case of Dr. Jekyll and Mr. Hyde",
      "The Tell-Tale Heart",
      "The Three Musketeers",
      "The Time Machine",
      "The War of the Worlds",
      "The Wonderful Wizard of Oz",
      "Through the Looking Glass",
      "Twelve Years a Slave",
      "Twenty Thousand Leagues Under the Seas",
      "War and Peace",
      "Winnie-the-Pooh",
      "Wuthering Heights"
    ]
  },
  {
    "description": "",
    "id": "historical-figures",
    "image": "historical-figures.webp",
    "name": "Historical figures",
    "questions": [
      "Abraham Lincoln",
      "Adam Smith",
      "Adolf Hitler",
      "Al Capone",
      "Alan Turing",
      "Albert Einstein",
      "Alexander the Great",
      "Amadeus Mozart",
      "Andy Warhol",
      "Anne Frank",
      "Ansel Adams",
      "Aristotle",
      "Babe Ruth",
      "Benedict Arnold",
      "Benito Mussolini",
      "Billy the Kid",
      "Bob Ross",
      "Brothers Grimm",
      "Buddha",
      "Charlemagne",
      "Charles Darwin",
      "Charles Dickens",
      "Charlie Chaplin",
      "Christopher Columbus",
      "Claude Monet",
      "Cleopatra",
      "Dante Alighieri",
      "Dr. Seuss",
      "Edgar Allan Poe",
      "Elvis Presley",
      "Ernest Hemingway",
      "Frank Sinatra",
      "Franklin D. Roosevelt",
      "Friedrich Nietzsche",
      "Galileo Galilei",
      "Genghis Khan",
      "George Washington",
      "Georgia O’Keeffe",
      "H. G. Wells",
      "Harriet Tubman",
      "Helen Keller",
      "Henry Ford",
      "Immanuel Kant",
      "Isaac Newton",
      "James Cook",
      "Jesus",
      "Jimi Hendrix",
      "Joan of Arc",
      "Johann Sebastian Bach",
      "John Adams",
      "John F. Kennedy",
      "John Lennon",
      "Jules Verne",
      "Julius Caesar",
      "King Arthur",
      "King Tut",
      "Leonardo DaVinci",
      "Lewis Carroll",
      "Louis Armstrong",
      "Ludwig van Beethoven",
      "Mahatma Gandhi",
      "Malcolm X",
      "Marie Antoinette",
      "Marie Curie",
      "Mark Twain",
      "Mark Twain",
      "Martin Luther King Jr.",
      "Mary Shelley",
      "Mary, Queen of Scots",
      "Michael Jackson",
      "Michelangelo",
      "Muhammad",
      "Muhammad Ali",
      "Napoleon Bonaparte",
      "Neil Armstrong",
      "Nelson Mandela",
      "Nicolaus Copernicus",
      "Nikola Tesla",
      "Oscar Wilde",
      "Otto von Bismarck",
      "Plato",
      "Pocahontas",
      "Pythagoras",
      "René Descartes",
      "Richard Nixon",
      "Rosa Parks",
      "Sacagawea",
      "Salvador Dalí",
      "Sigmund Freud",
      "Sitting Bull",
      "Socrates",
      "Stephen Hawking",
      "Susan B. Anthony",
      "Ty Cobb",
      "Vincent Van Gogh",
      "Vladimir Lenin",
      "Voltaire",
      "William Shakespeare",
      "Wright brothers"
    ]
  },
  {
    "description": "",
    "id": "mythical-creatures",
    "image": "mythical-creatures.webp",
    "name": "Fabelwesen",
    "questions": [
      "abscheulicher Schneemann",
      "Engel",
      "Großfuß",
      "Bloody Mary",
      "Zentaur",
      "Chupacabra",
      "Kuppler",
      "Teufel",
      "Elfe",
      "Fee",
      "gute Fee",
      "Father Time",
      "Genie",
      "Geist",
      "Leichenfledderer",
      "Riese",
      "Zwerg",
      "Kobold",
      "Sensenmann",
      "Hydra",
      "imp",
      "Väterchen Frost",
      "Kraken",
      "Leprechaun",
      "Ungeheuer von Loch Ness",
      "Nixe",
      "merman",
      "Oger",
      "Pegasus",
      "Phönix",
      "pixie",
      "Sandmännchen",
      "sasquatch",
      "Seeungeheuer",
      "Sirene",
      "Zauberer",
      "Sphinx ",
      "Geist",
      "Troll",
      "Einhorn",
      "Walküre",
      "Vampir",
      "Hexenmeister",
      "Werwolf",
      "Hexe",
      "Assistent",
      "Waldnymphe",
      "Yeti",
      "Zombie"
    ]
  },
  {
    "description": "",
    "id": "mixup",
    "image": "random.webp",
    "name": "Zufällig",
    "questions": []
  }
]
